{
    "menu": [
        {
            "url": "admin/dashboard",
            "name": "Dashboard",
            "icon": "home",
            "slug": "dashboard-analytics"
        },
        {
            "navheader": "Administration",
            "slug": ""
        },
        {
            "name": "Users",
            "icon": "users",
            "url": "admin/users",
            "slug": "users-all"
        },
        {
            "name": "Deals",
            "icon": "gift",
            "slug": "",
            "submenu": [
                {
                    "name": "All Deals",
                    "icon": "gift",
                    "url": "admin/deals",
                    "slug": "deals-all"
                },
                {
                    "name": "Categories",
                    "icon": "book",
                    "url": "admin/categories",
                    "slug": "categories-all"
                }
            ]
        },
        {
            "name": "Stores",
            "icon": "shopping-bag",
            "url": "admin/stores",
            "slug": "stores-all"
        }
    ]
}
